{
  "images" : [
    {
      "idiom" : "universal",
      "scale" : "1x"
    },
    {
      "idiom" : "universal",
      "filename" : "Tomar fotos_Iphone 5_Boton camara-1-1.png",
      "scale" : "2x"
    },
    {
      "idiom" : "universal",
      "filename" : "Screen-7_Tomar-fotos_Iphone-5_07.png",
      "scale" : "3x"
    }
  ],
  "info" : {
    "version" : 1,
    "author" : "xcode"
  }
}